[
    {
        "id": "1",
        "name": "The After Hours Tour",
        "artist": "3",
        "description": "The After Hours Tour is the upcoming eighth concert tour by Canadian singer-songwriter The Weeknd. It was launched in support of his fourth studio album, After Hours. The tour is set to begin on June 11, 2020, in Vancouver and is set to conclude on November 13, 2020, in Paris. - Wikipedia",
        "top_pick": true
    },
    {
        "id": "2",
        "name": "Future Nostalgia Tour",
        "artist": "4",
        "description": "The Future Nostalgia Tour is the fifth concert tour by English singer Dua Lipa. The tour will support her second studio album, Future Nostalgia (2020). - Wikipedia",
        "top_pick": true
    },
    {
        "id": "3",
        "name": "how i'm feeling world tour",
        "artist": "5",
        "description": ""
    },
    {
        "id": "4",
        "name": "My Name is Michael Holbrook Tour",
        "artist": "7",
        "description": ""
    },
    {
        "id": "5",
        "name": "The Chromatica Ball",
        "artist": "8",
        "description": "The Chromatica Ball is the upcoming sixth headlining concert tour by American singer Lady Gaga, in support of her upcoming sixth studio album, Chromatica. It will begin on July 24, 2020, in Saint-Denis, France and end on August 19, 2020, in East Rutherford, United States. - Wikipedia",
        "top_pick": true
    }
]